aula3/simulation/qsim/aula3.msim.vcd
$comment
	File created using the following command:
		vcd file aula3.msim.vcd -direction
$end
$date
	Tue Sep 01 15:04:25 2020
$end
$version
	ModelSim Version 2020.1
$end
$timescale
	1ps
$end

$scope module memoria_vhd_vec_tst $end
$var wire 1 ! Dado [7] $end
$var wire 1 " Dado [6] $end
$var wire 1 # Dado [5] $end
$var wire 1 $ Dado [4] $end
$var wire 1 % Dado [3] $end
$var wire 1 & Dado [2] $end
$var wire 1 ' Dado [1] $end
$var wire 1 ( Dado [0] $end
$var wire 1 ) Endereco [9] $end
$var wire 1 * Endereco [8] $end
$var wire 1 + Endereco [7] $end
$var wire 1 , Endereco [6] $end
$var wire 1 - Endereco [5] $end
$var wire 1 . Endereco [4] $end
$var wire 1 / Endereco [3] $end
$var wire 1 0 Endereco [2] $end
$var wire 1 1 Endereco [1] $end
$var wire 1 2 Endereco [0] $end

$scope module i1 $end
$var wire 1 3 gnd $end
$var wire 1 4 vcc $end
$var wire 1 5 unknown $end
$var wire 1 6 devoe $end
$var wire 1 7 devclrn $end
$var wire 1 8 devpor $end
$var wire 1 9 ww_devoe $end
$var wire 1 : ww_devclrn $end
$var wire 1 ; ww_devpor $end
$var wire 1 < ww_Endereco [9] $end
$var wire 1 = ww_Endereco [8] $end
$var wire 1 > ww_Endereco [7] $end
$var wire 1 ? ww_Endereco [6] $end
$var wire 1 @ ww_Endereco [5] $end
$var wire 1 A ww_Endereco [4] $end
$var wire 1 B ww_Endereco [3] $end
$var wire 1 C ww_Endereco [2] $end
$var wire 1 D ww_Endereco [1] $end
$var wire 1 E ww_Endereco [0] $end
$var wire 1 F ww_Dado [7] $end
$var wire 1 G ww_Dado [6] $end
$var wire 1 H ww_Dado [5] $end
$var wire 1 I ww_Dado [4] $end
$var wire 1 J ww_Dado [3] $end
$var wire 1 K ww_Dado [2] $end
$var wire 1 L ww_Dado [1] $end
$var wire 1 M ww_Dado [0] $end
$var wire 1 N \~QUARTUS_CREATED_GND~I_combout\ $end
$var wire 1 O \Endereco[1]~input_o\ $end
$var wire 1 P \Endereco[2]~input_o\ $end
$var wire 1 Q \Endereco[8]~input_o\ $end
$var wire 1 R \Endereco[9]~input_o\ $end
$var wire 1 S \Endereco[7]~input_o\ $end
$var wire 1 T \Endereco[5]~input_o\ $end
$var wire 1 U \Endereco[6]~input_o\ $end
$var wire 1 V \Endereco[4]~input_o\ $end
$var wire 1 W \memROM~0_combout\ $end
$var wire 1 X \Endereco[0]~input_o\ $end
$var wire 1 Y \Endereco[3]~input_o\ $end
$var wire 1 Z \memROM~6_combout\ $end
$var wire 1 [ \memROM~1_combout\ $end
$var wire 1 \ \memROM~5_combout\ $end
$var wire 1 ] \memROM~4_combout\ $end
$var wire 1 ^ \memROM~2_combout\ $end
$var wire 1 _ \memROM~3_combout\ $end
$var wire 1 ` \ALT_INV_Endereco[9]~input_o\ $end
$var wire 1 a \ALT_INV_Endereco[8]~input_o\ $end
$var wire 1 b \ALT_INV_Endereco[7]~input_o\ $end
$var wire 1 c \ALT_INV_Endereco[6]~input_o\ $end
$var wire 1 d \ALT_INV_Endereco[5]~input_o\ $end
$var wire 1 e \ALT_INV_Endereco[4]~input_o\ $end
$var wire 1 f \ALT_INV_Endereco[3]~input_o\ $end
$var wire 1 g \ALT_INV_Endereco[2]~input_o\ $end
$var wire 1 h \ALT_INV_Endereco[1]~input_o\ $end
$var wire 1 i \ALT_INV_Endereco[0]~input_o\ $end
$var wire 1 j \ALT_INV_memROM~0_combout\ $end
$upscope $end
$upscope $end
$enddefinitions $end
#0
$dumpvars
03
14
x5
16
17
18
19
1:
1;
xN
0O
0P
0Q
0R
0S
0T
0U
0V
1W
0X
0Y
1Z
0[
1\
0]
0^
1_
1`
1a
1b
1c
1d
1e
1f
1g
1h
1i
0j
0)
0*
0+
0,
0-
0.
0/
00
01
02
0<
0=
0>
0?
0@
0A
0B
0C
0D
0E
0F
1G
1H
0I
0J
1K
0L
1M
0!
1"
1#
0$
0%
1&
0'
1(
$end
#10000
12
1E
1X
0i
1]
1J
1%
#20000
02
11
0E
1D
1O
0X
1i
0h
0\
0]
0J
0K
0&
0%
#30000
12
1E
1X
0i
0Z
1[
1\
1]
1J
1K
1L
0M
0(
1'
1&
1%
#40000
02
01
10
0E
0D
1C
1P
0O
0X
1i
1h
0g
1Z
0[
0]
1^
1I
0J
0L
1M
1(
0'
0%
1$
#50000
12
1E
1X
0i
0^
0I
0$
#60000
02
11
0E
1D
1O
0X
1i
0h
0Z
1]
1J
0M
0(
1%
#70000
12
1E
1X
0i
#80000
02
01
00
1/
0E
0D
0C
1B
1Y
0P
0O
0X
1i
1h
1g
0f
1Z
0]
0J
1M
1(
0%
#90000
12
1E
1X
0i
0Z
0\
0_
0H
0G
0K
0M
0(
0&
0#
0"
#100000
02
11
0E
1D
1O
0X
1i
0h
#110000
12
1E
1X
0i
#120000
02
01
10
0E
0D
1C
1P
0O
0X
1i
1h
0g
#130000
12
1E
1X
0i
#140000
02
11
0E
1D
1O
0X
1i
0h
#150000
12
1E
1X
0i
#160000
02
01
00
0/
1.
0E
0D
0C
0B
1A
1V
0Y
0P
0O
0X
1i
1h
1g
1f
0e
0W
1Z
1\
1_
1j
0Z
0\
0_
1H
1G
1K
1M
1(
1&
1#
1"
0H
0G
0K
0M
0(
0&
0#
0"
#170000
12
1E
1X
0i
#180000
02
11
0E
1D
1O
0X
1i
0h
#190000
12
1E
1X
0i
#200000
02
01
10
0E
0D
1C
1P
0O
0X
1i
1h
0g
#210000
12
1E
1X
0i
#220000
02
11
0E
1D
1O
0X
1i
0h
#230000
12
1E
1X
0i
#240000
02
01
00
1/
0E
0D
0C
1B
1Y
0P
0O
0X
1i
1h
1g
0f
#250000
12
1E
1X
0i
#260000
02
11
0E
1D
1O
0X
1i
0h
#270000
12
1E
1X
0i
#280000
02
01
10
0E
0D
1C
1P
0O
0X
1i
1h
0g
#290000
12
1E
1X
0i
#300000
02
11
0E
1D
1O
0X
1i
0h
#310000
12
1E
1X
0i
#320000
02
01
00
0/
0.
1-
0E
0D
0C
0B
0A
1@
1T
0V
0Y
0P
0O
0X
1i
1h
1g
1f
1e
0d
#330000
12
1E
1X
0i
#340000
02
11
0E
1D
1O
0X
1i
0h
#350000
12
1E
1X
0i
#360000
02
01
10
0E
0D
1C
1P
0O
0X
1i
1h
0g
#370000
12
1E
1X
0i
#380000
02
11
0E
1D
1O
0X
1i
0h
#390000
12
1E
1X
0i
#400000
02
01
00
1/
0E
0D
0C
1B
1Y
0P
0O
0X
1i
1h
1g
0f
#410000
12
1E
1X
0i
#420000
02
11
0E
1D
1O
0X
1i
0h
#430000
12
1E
1X
0i
#440000
02
01
10
0E
0D
1C
1P
0O
0X
1i
1h
0g
#450000
12
1E
1X
0i
#460000
02
11
0E
1D
1O
0X
1i
0h
#470000
12
1E
1X
0i
#480000
02
01
00
0/
1.
0E
0D
0C
0B
1A
1V
0Y
0P
0O
0X
1i
1h
1g
1f
0e
#490000
12
1E
1X
0i
#500000
02
11
0E
1D
1O
0X
1i
0h
#510000
12
1E
1X
0i
#520000
02
01
10
0E
0D
1C
1P
0O
0X
1i
1h
0g
#530000
12
1E
1X
0i
#540000
02
11
0E
1D
1O
0X
1i
0h
#550000
12
1E
1X
0i
#560000
02
01
00
1/
0E
0D
0C
1B
1Y
0P
0O
0X
1i
1h
1g
0f
#570000
12
1E
1X
0i
#580000
02
11
0E
1D
1O
0X
1i
0h
#590000
12
1E
1X
0i
#600000
02
01
10
0E
0D
1C
1P
0O
0X
1i
1h
0g
#610000
12
1E
1X
0i
#620000
02
11
0E
1D
1O
0X
1i
0h
#630000
12
1E
1X
0i
#640000
02
01
00
0/
0.
0-
1,
0E
0D
0C
0B
0A
0@
1?
1U
0T
0V
0Y
0P
0O
0X
1i
1h
1g
1f
1e
1d
0c
#650000
12
1E
1X
0i
#660000
02
11
0E
1D
1O
0X
1i
0h
#670000
12
1E
1X
0i
#680000
02
01
10
0E
0D
1C
1P
0O
0X
1i
1h
0g
#690000
12
1E
1X
0i
#700000
02
11
0E
1D
1O
0X
1i
0h
#710000
12
1E
1X
0i
#720000
02
01
00
1/
0E
0D
0C
1B
1Y
0P
0O
0X
1i
1h
1g
0f
#730000
12
1E
1X
0i
#740000
02
11
0E
1D
1O
0X
1i
0h
#750000
12
1E
1X
0i
#760000
02
01
10
0E
0D
1C
1P
0O
0X
1i
1h
0g
#770000
12
1E
1X
0i
#780000
02
11
0E
1D
1O
0X
1i
0h
#790000
12
1E
1X
0i
#800000
02
01
00
0/
1.
0E
0D
0C
0B
1A
1V
0Y
0P
0O
0X
1i
1h
1g
1f
0e
#810000
12
1E
1X
0i
#820000
02
11
0E
1D
1O
0X
1i
0h
#830000
12
1E
1X
0i
#840000
02
01
10
0E
0D
1C
1P
0O
0X
1i
1h
0g
#850000
12
1E
1X
0i
#860000
02
11
0E
1D
1O
0X
1i
0h
#870000
12
1E
1X
0i
#880000
02
01
00
1/
0E
0D
0C
1B
1Y
0P
0O
0X
1i
1h
1g
0f
#890000
12
1E
1X
0i
#900000
02
11
0E
1D
1O
0X
1i
0h
#910000
12
1E
1X
0i
#920000
02
01
10
0E
0D
1C
1P
0O
0X
1i
1h
0g
#930000
12
1E
1X
0i
#940000
02
11
0E
1D
1O
0X
1i
0h
#950000
12
1E
1X
0i
#960000
02
01
00
0/
0.
1-
0E
0D
0C
0B
0A
1@
1T
0V
0Y
0P
0O
0X
1i
1h
1g
1f
1e
0d
#970000
12
1E
1X
0i
#980000
02
11
0E
1D
1O
0X
1i
0h
#990000
12
1E
1X
0i
